[
  {
    "Uri": "/restconf/data/goxobot-inventory:nodes",
    "Payload": "{\"nodes\": {\"node\": [{\"flow-node-inventory:hardware\": ”Test vSwitch\",\"flow-node-inventory:software\": \"1.1.0\",\"id\": \"openflow:1\",\"flow-node-inventory:switch-features\": {\"flow-node-inventory:capabilities\": [\"flow-node-inventory:flow-feature-capability-flow-stats\",\"flow-node-inventory:flow-feature-capability-port-stats”,],\"flow-node-inventory:max_buffers\": 256,\"flow-node-inventory:max_tables\": 255}}]}",
    "Fields": [
      {
        "Key": "Content-Type",
        "Value": "application/yang-data+json"
      }]
  },
  {
    "Uri": "/restconf/data/goxobot-interfaces:interfaces",
    "Payload": "{\"ietf-interface:interfaces\": {\"interface\": [{\"name\": \"eth0”,\"type\": \"ethernetCsmacd”,\"location\": \"0”,\"enabled\": true,\"if-index\": 2},{\"name\": \"eth1”,\"type\": \"ethernetCsmacd”,\"location\": \"1”,\"enabled\": false,\"if-index\": 2}]}}",
    "Fields": [
      {
        "Key": "Content-Type",
        "Value": "application/yang-data+json"
      }]
  },
  {
    "Uri": "/restconf/data/goxobot-network:networks",
    "Payload": "{\"ietf-network:networks\":{\"network\":[{\"ietf-te-topology:client-id\":\"6666\",\"ietf-network-topology:link\":[{\"destination\":{\"dest-node\":\"0.185.0.44\",\"dest-tp\":\"12\"},\"link-id\":\"teNodeId/0.185.0.41/teLinkId/15\",\"source\":{\"source-node\":\"0.185.0.41\",\"source-tp\":\"15\"},\"ietf-te-topology:te\":{\"oper-status\":\"up\",\"te-link-attributes\":{\"access-type\":\"point-to-point\",\"admin-status\":\"up\",\"interface-switching-capability\":[{\"encoding\":\"lsp-encoding-oduk\",\"switching-capability\":\"switching-otn\"}],\"link-index\":\"15\",\"max-link-bandwidth\":{\"te-bandwidth\":{\"ietf-otn-topology:odulist\":[{\"number\":\"80\",\"odu-type\":\"prot-ODU0\"},{\"number\":\"40\",\"odu-type\":\"prot-ODU1\"},{\"number\":\"10\",\"odu-type\":\"prot-ODU2\"},{\"number\":\"2\",\"odu-type\":\"prot-ODU3\"},{\"number\":\"1\",\"odu-type\":\"prot-ODU4\"}]}},\"name\":\"teNodeId/0.185.0.41/teLinkId/15\",\"te-delay-metric\":\"-1\",\"te-srlgs\":{},\"unreserved-bandwidth\":[{\"priority\":\"7\",\"te-bandwidth\":{\"ietf-otn-topology:odulist\":[{\"number\":\"0\",\"odu-type\":\"prot-ODU0\"},{\"number\":\"0\",\"odu-type\":\"prot-ODU1\"},{\"number\":\"0\",\"odu-type\":\"prot-ODU2\"},{\"number\":\"0\",\"odu-type\":\"prot-ODU3\"},{\"number\":\"0\",\"odu-type\":\"prot-ODU4\"}]}}]}}},{\"link-id\":\"teNodeId/0.185.0.41/teLinkId/234815489\",\"source\":{\"source-node\":\"0.185.0.41\",\"source-tp\":\"234815489\"},\"ietf-te-topology:te\":{\"oper-status\":\"up\",\"te-link-attributes\":{\"access-type\":\"point-to-point\",\"admin-status\":\"up\",\"interface-switching-capability\":[{\"encoding\":\"lsp-encoding-oduk\",\"switching-capability\":\"switching-otn\"}],\"link-index\":\"234815489\",\"max-link-bandwidth\":{\"te-bandwidth\":{\"ietf-otn-topology:odulist\":[{\"number\":\"80\",\"odu-type\":\"prot-ODU0\"},{\"number\":\"40\",\"odu-type\":\"prot-ODU1\"},{\"number\":\"10\",\"odu-type\":\"prot-ODU2\"},{\"number\":\"2\",\"odu-type\":\"prot-ODU3\"},{\"number\":\"1\",\"odu-type\":\"prot-ODU4\"}]}},\"name\":\"teNodeId/0.185.0.41/teLinkId/234815489\",\"unreserved-bandwidth\":[{\"priority\":\"7\",\"te-bandwidth\":{\"ietf-otn-topology:odulist\":[{\"number\":\"0\",\"odu-type\":\"prot-ODU0\"},{\"number\":\"0\",\"odu-type\":\"prot-ODU1\"},{\"number\":\"0\",\"odu-type\":\"prot-ODU2\"},{\"number\":\"0\",\"odu-type\":\"prot-ODU3\"},{\"number\":\"0\",\"odu-type\":\"prot-ODU4\"}]}}]}}},{\"link-id\":\"teNodeId/0.185.0.42/teLinkId/234815489\",\"source\":{\"source-node\":\"0.185.0.42\",\"source-tp\":\"234815489\"},\"ietf-te-topology:te\":{\"oper-status\":\"up\",\"te-link-attributes\":{\"access-type\":\"point-to-point\",\"admin-status\":\"up\",\"interface-switching-capability\":[{\"encoding\":\"lsp-encoding-oduk\",\"switching-capability\":\"switching-otn\"}],\"link-index\":\"234815489\",\"max-link-bandwidth\":{\"te-bandwidth\":{\"ietf-otn-topology:odulist\":[{\"number\":\"80\",\"odu-type\":\"prot-ODU0\"},{\"number\":\"40\",\"odu-type\":\"prot-ODU1\"},{\"number\":\"10\",\"odu-type\":\"prot-ODU2\"},{\"number\":\"2\",\"odu-type\":\"prot-ODU3\"},{\"number\":\"1\",\"odu-type\":\"prot-ODU4\"}]}},\"name\":\"teNodeId/0.185.0.42/teLinkId/234815489\",\"unreserved-bandwidth\":[{\"priority\":\"7\",\"te-bandwidth\":{\"ietf-otn-topology:odulist\":[{\"number\":\"0\",\"odu-type\":\"prot-ODU0\"},{\"number\":\"0\",\"odu-type\":\"prot-ODU1\"},{\"number\":\"0\",\"odu-type\":\"prot-ODU2\"},{\"number\":\"0\",\"odu-type\":\"prot-ODU3\"},{\"number\":\"0\",\"odu-type\":\"prot-ODU4\"}]}}]}}},{\"destination\":{\"dest-node\":\"0.185.0.41\",\"dest-tp\":\"15\"},\"link-id\":\"teNodeId/0.185.0.44/teLinkId/12\",\"source\":{\"source-node\":\"0.185.0.44\",\"source-tp\":\"12\"},\"ietf-te-topology:te\":{\"oper-status\":\"up\",\"te-link-attributes\":{\"access-type\":\"point-to-point\",\"admin-status\":\"up\",\"interface-switching-capability\":[{\"encoding\":\"lsp-encoding-oduk\",\"switching-capability\":\"switching-otn\"}],\"link-index\":\"12\",\"max-link-bandwidth\":{\"te-bandwidth\":{\"ietf-otn-topology:odulist\":[{\"number\":\"80\",\"odu-type\":\"prot-ODU0\"},{\"number\":\"40\",\"odu-type\":\"prot-ODU1\"},{\"number\":\"10\",\"odu-type\":\"prot-ODU2\"},{\"number\":\"2\",\"odu-type\":\"prot-ODU3\"},{\"number\":\"1\",\"odu-type\":\"prot-ODU4\"}]}},\"name\":\"teNodeId/0.185.0.44/teLinkId/12\",\"te-delay-metric\":\"-1\",\"te-srlgs\":{},\"unreserved-bandwidth\":[{\"priority\":\"7\",\"te-bandwidth\":{\"ietf-otn-topology:odulist\":[{\"number\":\"0\",\"odu-type\":\"prot-ODU0\"},{\"number\":\"0\",\"odu-type\":\"prot-ODU1\"},{\"number\":\"0\",\"odu-type\":\"prot-ODU2\"},{\"number\":\"0\",\"odu-type\":\"prot-ODU3\"},{\"number\":\"0\",\"odu-type\":\"prot-ODU4\"}]}}]}}},{\"link-id\":\"teNodeId/0.185.0.44/teLinkId/234815489\",\"source\":{\"source-node\":\"0.185.0.44\",\"source-tp\":\"234815489\"},\"ietf-te-topology:te\":{\"oper-status\":\"up\",\"te-link-attributes\":{\"access-type\":\"point-to-point\",\"admin-status\":\"up\",\"interface-switching-capability\":[{\"encoding\":\"lsp-encoding-oduk\",\"switching-capability\":\"switching-otn\"}],\"link-index\":\"234815489\",\"max-link-bandwidth\":{\"te-bandwidth\":{\"ietf-otn-topology:odulist\":[{\"number\":\"80\",\"odu-type\":\"prot-ODU0\"},{\"number\":\"40\",\"odu-type\":\"prot-ODU1\"},{\"number\":\"10\",\"odu-type\":\"prot-ODU2\"},{\"number\":\"2\",\"odu-type\":\"prot-ODU3\"},{\"number\":\"1\",\"odu-type\":\"prot-ODU4\"}]}},\"name\":\"teNodeId/0.185.0.44/teLinkId/234815489\",\"unreserved-bandwidth\":[{\"priority\":\"7\",\"te-bandwidth\":{\"ietf-otn-topology:odulist\":[{\"number\":\"0\",\"odu-type\":\"prot-ODU0\"},{\"number\":\"0\",\"odu-type\":\"prot-ODU1\"},{\"number\":\"0\",\"odu-type\":\"prot-ODU2\"},{\"number\":\"0\",\"odu-type\":\"prot-ODU3\"},{\"number\":\"0\",\"odu-type\":\"prot-ODU4\"}]}}]}}}],\"network-id\":\"providerId/5555/clientId/6666/topologyId/11\",\"network-types\":{\"ietf-te-topology:te-topology\":{\"ietf-otn-topology:otn-topology\":{}}},\"node\":[{\"node-id\":\"0.185.0.41\",\"ietf-te-topology:te\":{\"oper-status\":\"up\",\"te-node-attributes\":{\"admin-status\":\"up\",\"name\":\"NE(185-41)_18V\"}},\"ietf-te-topology:te-node-id\":\"0.185.0.41\",\"ietf-network-topology:termination-point\":[{\"ietf-te-topology:te\":{\"admin-status\":\"up\",\"interface-switching-capability\":[{\"encoding\":\"lsp-encoding-oduk\",\"max-lsp-bandwidth\":[{\"priority\":\"7\",\"te-bandwidth\":{\"ietf-otn-topology:odu-type\":\"prot-ODU4\"}}],\"switching-capability\":\"switching-otn\"}],\"name\":\"PhysicalPort{shelfId=0, boardId=4, subCardId=0, portId=1}\",\"oper-status\":\"up\"},\"ietf-te-topology:te-tp-id\":\"13\",\"tp-id\":\"13\"},{\"ietf-te-topology:te\":{\"admin-status\":\"up\",\"interface-switching-capability\":[{\"encoding\":\"lsp-encoding-oduk\",\"max-lsp-bandwidth\":[{\"priority\":\"7\",\"te-bandwidth\":{\"ietf-otn-topology:odu-type\":\"prot-ODU4\"}}],\"switching-capability\":\"switching-otn\"}],\"name\":\"PhysicalPort{shelfId=0, boardId=9, subCardId=0, portId=1}\",\"oper-status\":\"up\"},\"ietf-te-topology:te-tp-id\":\"14\",\"tp-id\":\"14\"},{\"ietf-te-topology:te\":{\"admin-status\":\"up\",\"interface-switching-capability\":[{\"encoding\":\"lsp-encoding-oduk\",\"max-lsp-bandwidth\":[{\"priority\":\"7\",\"te-bandwidth\":{\"ietf-otn-topology:odu-type\":\"prot-ODU4\"}}],\"switching-capability\":\"switching-otn\"}],\"name\":\"PhysicalPort{shelfId=0, boardId=11, subCardId=0, portId=1}\",\"oper-status\":\"up\"},\"ietf-te-topology:te-tp-id\":\"15\",\"tp-id\":\"15\"},{\"ietf-te-topology:te\":{\"admin-status\":\"up\",\"ietf-otn-topology:client-facing\":\"true\",\"interface-switching-capability\":[{\"encoding\":\"lsp-encoding-ethernet\",\"max-lsp-bandwidth\":[{\"priority\":\"7\",\"te-bandwidth\":{\"ietf-eth-te-topology:eth-bandwidth\":\"100000000\"}}],\"switching-capability\":\"switching-l2sc\"},{\"encoding\":\"lsp-encoding-oduk\",\"max-lsp-bandwidth\":[{\"priority\":\"7\",\"te-bandwidth\":{\"ietf-otn-topology:odu-type\":\"prot-ODU4\"}}],\"switching-capability\":\"switching-otn\"}],\"name\":\"PhysicalPort{shelfId=0, boardId=13, subCardId=255, portId=1}\",\"oper-status\":\"up\",\"ietf-otn-topology:supported-Payload-types\":[{\"index\":\"0\",\"Payload-type\":\"03\"}]},\"ietf-te-topology:te-tp-id\":\"234815489\",\"tp-id\":\"234815489\"}]},{\"node-id\":\"0.185.0.44\",\"ietf-te-topology:te\":{\"oper-status\":\"up\",\"te-node-attributes\":{\"admin-status\":\"up\",\"name\":\"NE(185-44)_18V\"}},\"ietf-te-topology:te-node-id\":\"0.185.0.44\",\"ietf-network-topology:termination-point\":[{\"ietf-te-topology:te\":{\"admin-status\":\"up\",\"interface-switching-capability\":[{\"encoding\":\"lsp-encoding-oduk\",\"max-lsp-bandwidth\":[{\"priority\":\"7\",\"te-bandwidth\":{\"ietf-otn-topology:odu-type\":\"prot-ODU4\"}}],\"switching-capability\":\"switching-otn\"}],\"name\":\"PhysicalPort{shelfId=0, boardId=11, subCardId=0, portId=1}\",\"oper-status\":\"up\"},\"ietf-te-topology:te-tp-id\":\"12\",\"tp-id\":\"12\"},{\"ietf-te-topology:te\":{\"admin-status\":\"up\",\"ietf-otn-topology:client-facing\":\"true\",\"interface-switching-capability\":[{\"encoding\":\"lsp-encoding-ethernet\",\"max-lsp-bandwidth\":[{\"priority\":\"7\",\"te-bandwidth\":{\"ietf-eth-te-topology:eth-bandwidth\":\"100000000\"}}],\"switching-capability\":\"switching-l2sc\"},{\"encoding\":\"lsp-encoding-oduk\",\"max-lsp-bandwidth\":[{\"priority\":\"7\",\"te-bandwidth\":{\"ietf-otn-topology:odu-type\":\"prot-ODU4\"}}],\"switching-capability\":\"switching-otn\"}],\"name\":\"PhysicalPort{shelfId=0, boardId=13, subCardId=255, portId=1}\",\"oper-status\":\"up\",\"ietf-otn-topology:supported-Payload-types\":[{\"index\":\"0\",\"Payload-type\":\"03\"}]},\"ietf-te-topology:te-tp-id\":\"234815489\",\"tp-id\":\"234815489\"},{\"ietf-te-topology:te\":{\"admin-status\":\"up\",\"interface-switching-capability\":[{\"encoding\":\"lsp-encoding-oduk\",\"max-lsp-bandwidth\":[{\"priority\":\"7\",\"te-bandwidth\":{\"ietf-otn-topology:odu-type\":\"prot-ODU4\"}}],\"switching-capability\":\"switching-otn\"}],\"name\":\"PhysicalPort{shelfId=0, boardId=4, subCardId=0, portId=1}\",\"oper-status\":\"up\"},\"ietf-te-topology:te-tp-id\":\"6\",\"tp-id\":\"6\"},{\"ietf-te-topology:te\":{\"admin-status\":\"up\",\"interface-switching-capability\":[{\"encoding\":\"lsp-encoding-oduk\",\"max-lsp-bandwidth\":[{\"priority\":\"7\",\"te-bandwidth\":{\"ietf-otn-topology:odu-type\":\"prot-ODU4\"}}],\"switching-capability\":\"switching-otn\"}],\"name\":\"PhysicalPort{shelfId=0, boardId=9, subCardId=0, portId=1}\",\"oper-status\":\"up\"},\"ietf-te-topology:te-tp-id\":\"9\",\"tp-id\":\"9\"}]}],\"ietf-te-topology:provider-id\":\"5555\",\"ietf-te-topology:te\":{\"name\":\"HUAWEI OTN Network\",\"optimization-criterion\":\"not-optimized\"},\"ietf-te-topology:te-topology-id\":\"11\"}]}}",
    "Fields": [
      {
        "Key": "Content-Type",
        "Value": "application/yang-data+json"
      }]
  },
  {
    "Uri": "/restconf/test/goxobot-test",
    "Payload": "{\"ok\"}",
    "Fields": [
      {
        "Key": "Content-Type",
        "Value": "application/yang-data+json"
      }]
  },
  {
    "Uri": "rest/plat/smapp/v1/oauth/token",
    "Payload": "{\"access_token\":\"mF_9.B5f-4.1JqM\",\"token_type\":\"Bearer\",\"expires_in\":3600,\"refresh_token\":\"tGzv3JOkF0XG5Qx2TlKWIA\"}",
    "Fields": [
      {
        "Key": "Content-Type",
        "Value": "application/yang-data+json"
      },
      {
        "Key": "Cache-Control",
        "Value": "no-store"
      },
      {
        "Key": "Pragma",
        "Value": "no-cache"
      }]
  }
]